{
  "registries": [
    {
      "kind": "git",
      "baseline": "5f4b12d914f17b45d75ccf4f730faefd27b2a581",
      "repository": "git@gitlab.com:jgd-solutions/vcpkg-registry.git",
      "packages": [
        "jgd-cmake-modules"
      ]
    }
  ]
}
